^F:\CPP\REPOS\LECTURECPP\CLASSPROJECTS\WINAPIDICE\WINAPIDEMO001\MAIN.CPP
/c /ZI /nologo /W3 /WX- /Od /Oy- /D WIN32 /D _DEBUG /D _WINDOWS /D _UNICODE /D UNICODE /Gm /EHsc /RTC1 /MDd /GS /fp:precise /Zc:wchar_t /Zc:forScope /Fo"DEBUG\\" /Fd"DEBUG\VC120.PDB" /Gd /TP /analyze- F:\CPP\REPOS\LECTURECPP\CLASSPROJECTS\WINAPIDICE\WINAPIDEMO001\MAIN.CPP
^F:\GITHUB_REPOS_COMPLETED\WINAPI\WINAPIDICE\WINAPIDEMO001\MAIN.CPP
/c /ZI /nologo /W3 /WX- /Od /Oy- /D WIN32 /D _DEBUG /D _WINDOWS /D _UNICODE /D UNICODE /Gm /EHsc /RTC1 /MDd /GS /fp:precise /Zc:wchar_t /Zc:forScope /Fo"DEBUG\\" /Fd"DEBUG\VC120.PDB" /Gd /TP /analyze- F:\GITHUB_REPOS_COMPLETED\WINAPI\WINAPIDICE\WINAPIDEMO001\MAIN.CPP
